27

28 106
1
25 98
154 93

139 64
26
31 48
84 24
70 18
89 37
90 49
24 46
97 46
120 30
34 11
124 53
27 11
17 0
9 0
114 28
58 14
21 6
22 23
17 33
104 51
137 19
39 61
120 62
100 58
121 2
84 15
41 16
106 99

69 159
17
28 99
37 147
27 103
18 55
36 68
50 35
64 47
67 43
62 131
32 85
15 42
30 21
9 153
48 21
6 66
57 11
51 123
32 71

96 141
23
75 3
67 112
60 116
87 60
74 67
71 14
76 71
13 62
45 91
60 106
66 105
0 98
29 10
10 2
17 24
40 123
48 123
70 127
36 71
59 22
3 135
12 43
70 13
135 98

124 151
25
89 146
16 42
51 115
68 19
77 107
116 121
12 69
36 116
42 122
9 111
120 99
82 11
40 130
94 128
121 82
115 74
47 81
21 127
81 91
26 121
103 53
15 58
70 119
102 35
114 34
114 76

84 156
9
24 140
50 48
52 95
33 49
30 127
7 90
60 136
47 153
72 7
46 70

138 165
3
123 69
68 132
13 1
150 61

151 62
24
38 27
34 8
54 21
36 33
143 23
13 37
69 57
150 53
20 45
115 1
2 60
71 31
6 31
83 61
129 2
3 23
102 33
55 26
37 23
20 50
2 12
69 21
148 50
74 54
161 88

104 99
12
37 9
50 80
57 42
26 81
49 59
42 61
101 67
11 17
51 94
94 11
17 98
47 52
52 93

145 181
3
141 118
50 6
67 74
2 63

178 193
8
176 62
61 104
27 189
157 90
163 149
78 13
1 56
56 30
181 73

35 12
16
28 11
32 7
11 10
15 8
7 6
30 2
16 10
23 0
20 2
23 9
3 10
20 8
13 3
11 5
5 10
0 7
26 70

134 51
24
12 40
48 30
35 0
7 4
43 11
14 14
129 6
52 20
46 10
114 27
60 43
99 14
18 21
97 18
101 18
13 26
101 47
101 13
5 21
127 38
46 8
35 13
11 20
124 6
96 72

9 66
14
6 10
5 4
0 41
5 37
2 39
6 38
1 36
7 61
0 37
0 44
4 26
5 64
7 56
8 38
42 83

133 78
15
93 74
40 55
5 9
120 33
2 36
40 21
8 16
34 13
80 32
55 65
113 25
9 14
61 49
109 76
64 55
52 63

51 185
15
21 5
6 117
11 180
31 121
14 52
42 53
3 13
30 57
1 180
38 160
43 169
34 138
8 6
21 49
6 5
12 90

103 175
16
98 41
35 166
28 56
26 83
16 93
76 22
13 42
96 171
35 34
41 57
23 49
77 8
27 51
41 87
95 34
50 46
158 70

199 167
24
144 50
91 32
43 125
192 129
75 164
59 14
127 3
74 46
7 114
192 120
108 9
67 155
109 15
188 47
48 159
111 64
152 14
147 79
45 72
84 45
109 163
151 60
190 76
27 93
92 80

131 190
21
82 134
15 89
9 3
108 110
11 57
116 98
94 12
4 124
113 36
121 116
37 157
5 138
47 0
77 14
46 188
17 53
78 2
65 13
128 183
83 179
49 159
164 88

187 54
7
74 52
86 3
145 42
59 42
168 13
150 16
159 11
1 81

169 96
9
117 17
80 44
6 71
166 5
87 65
110 47
124 44
81 26
105 23
64 81

114 62
12
13 36
29 24
22 12
75 57
106 22
29 14
39 24
28 4
67 19
47 46
42 10
89 38
167 89

85 103
23
83 92
52 63
79 64
65 9
53 29
32 50
25 54
70 40
64 11
69 49
48 12
31 94
54 51
56 16
42 58
48 43
15 91
54 61
74 84
6 62
61 81
7 37
35 97
98 64

66 147
21
62 126
45 80
54 83
17 117
62 93
40 115
62 4
32 20
27 135
13 126
13 60
7 75
5 45
25 57
34 27
49 0
65 4
62 66
2 141
37 24
25 94
133 61

137 10
13
33 2
121 3
101 3
23 2
54 7
8 4
130 8
60 9
90 4
24 5
111 7
124 2
60 3
136 72

1 177
23
0 62
0 17
0 135
0 99
0 41
0 15
0 53
0 147
0 95
0 99
0 130
0 24
0 84
0 0
0 94
0 0
0 96
0 43
0 172
0 171
0 23
0 100
0 106
170 95

38 25
6
22 24
23 10
4 10
12 22
6 0
21 11
82 99
