*** Life<ConwayCell> 12x18 ***

Generation = 0, Population = 64.
....**......**....
...*.*......*.*...
...*..........*...
**.*..........*.**
**.*.*..**..*.*.**
...*.*.*..*.*.*...
...*.*.*..*.*.*...
**.*.*..**..*.*.**
**.*..........*.**
...*..........*...
...*.*......*.*...
....**......**....

Generation = 1, Population = 64.
....**......**....
...*.*......*.*...
...*..........*...
**.*..........*.**
**.*..*.**.*..*.**
...*.*.*..*.*.*...
...*.*.*..*.*.*...
**.*..*.**.*..*.**
**.*..........*.**
...*..........*...
...*.*......*.*...
....**......**....

Generation = 2, Population = 72.
....**......**....
...*.*......*.*...
...*..........*...
**.**........**.**
**.*..******..*.**
...*.*.*..*.*.*...
...*.*.*..*.*.*...
**.*..******..*.**
**.**........**.**
...*..........*...
...*.*......*.*...
....**......**....

Generation = 3, Population = 80.
....**......**....
...*.*......*.*...
...*..........*...
**.**..****..**.**
**.*.********.*.**
...*.*......*.*...
...*.*......*.*...
**.*.********.*.**
**.**..****..**.**
...*..........*...
...*.*......*.*...
....**......**....

Generation = 4, Population = 72.
....**......**....
...*.*......*.*...
...*....**....*...
**.*.*......*.*.**
**.*.*......*.*.**
...*.*.****.*.*...
...*.*.****.*.*...
**.*.*......*.*.**
**.*.*......*.*.**
...*....**....*...
...*.*......*.*...
....**......**....

Generation = 5, Population = 64.
....**......**....
...*.*......*.*...
...*..........*...
**.*..........*.**
**.*.*..**..*.*.**
...*.*.*..*.*.*...
...*.*.*..*.*.*...
**.*.*..**..*.*.**
**.*..........*.**
...*..........*...
...*.*......*.*...
....**......**....

*** Life<ConwayCell> 11x14 ***

Generation = 0, Population = 36.
..............
.....****.....
..............
...********...
..............
.************.
..............
.....****.....
..............
...********...
..............

Generation = 1, Population = 38.
......**......
......**......
..............
....******....
..............
..**********..
..**......**..
......**......
..............
....******....
....******....

Generation = 2, Population = 22.
......**......
......**......
..............
.....****.....
..............
..*.******.*..
..*........*..
..............
..............
....*....*....
....*....*....

Generation = 3, Population = 22.
......**......
......**......
.....*..*.....
......**......
....*....*....
...*.****.*...
...*.****.*...
..............
..............
..............
..............

Generation = 4, Population = 18.
......**......
.....*..*.....
.....*..*.....
.....****.....
....*....*....
...*......*...
.....*..*.....
......**......
..............
..............
..............

Generation = 5, Population = 26.
......**......
.....*..*.....
....**..**....
....******....
....******....
....*....*....
......**......
......**......
..............
..............
..............

Generation = 6, Population = 18.
......**......
....**..**....
..............
...*......*...
...*......*...
....*....*....
.....****.....
......**......
..............
..............
..............

Generation = 7, Population = 24.
.....****.....
.....****.....
....*....*....
..............
...**....**...
....******....
.....*..*.....
.....*..*.....
..............
..............
..............

Generation = 8, Population = 22.
.....*..*.....
....*....*....
.....****.....
...**....**...
...**.**.**...
...*..**..*...
..............
..............
..............
..............
..............

Generation = 9, Population = 22.
..............
....*....*....
...*.****.*...
...*......*...
..*...**...*..
...********...
..............
..............
..............
..............
..............

Generation = 10, Population = 34.
..............
....******....
...*.****.*...
..****..****..
..*........*..
...***..***...
....******....
..............
..............
..............
..............

Generation = 11, Population = 24.
.....****.....
....*....*....
..*........*..
..*..*..*..*..
..*........*..
...*......*...
...*..**..*...
.....****.....
..............
..............
..............

Generation = 12, Population = 32.
.....****.....
.....****.....
...*......*...
.***......***.
..**......**..
..**......**..
....**..**....
.....*..*.....
......**......
..............
..............

Generation = 13, Population = 32.
.....*..*.....
....**..**....
...**.**.**...
.*..*....*..*.
....*....*....
..*........*..
...***..***...
....**..**....
......**......
..............
..............

Generation = 14, Population = 26.
....**..**....
...*......*...
...*..**..*...
....*....*....
...*......*...
.....*..*.....
...*.*..*.*...
...*......*...
.....****.....
..............
..............

Generation = 15, Population = 24.
....*....*....
...*.****.*...
...**....**...
...**....**...
....*....*....
..............
..............
.....*..*.....
......**......
......**......
..............

Generation = 16, Population = 28.
....******....
...*.****.*...
..*...**...*..
.....*..*.....
...**....**...
..............
..............
......**......
.....*..*.....
......**......
..............

*** Life<ConwayCell> 14x14 ***

Generation = 0, Population = 9.
..............
..............
..............
..............
..............
..............
...*..........
..*...........
...**.........
..............
..............
...**.........
..*.*.........
....*.........

Generation = 1, Population = 8.
..............
..............
..............
..............
..............
..............
..............
..*.*.........
...*..........
..............
..............
...**.........
....**........
...*..........

Generation = 2, Population = 7.
..............
..............
..............
..............
..............
..............
..............
...*..........
...*..........
..............
..............
...***........
.....*........
....*.........

Generation = 3, Population = 5.
..............
..............
..............
..............
..............
..............
..............
..............
..............
..............
....*.........
....**........
...*.*........
..............

Generation = 4, Population = 5.
..............
..............
..............
..............
..............
..............
..............
..............
..............
..............
....**........
...*.*........
.....*........
..............

Generation = 5, Population = 5.
..............
..............
..............
..............
..............
..............
..............
..............
..............
..............
....**........
.....**.......
....*.........
..............

Generation = 6, Population = 5.
..............
..............
..............
..............
..............
..............
..............
..............
..............
..............
....***.......
......*.......
.....*........
..............

Generation = 7, Population = 5.
..............
..............
..............
..............
..............
..............
..............
..............
..............
.....*........
.....**.......
....*.*.......
..............
..............

Generation = 8, Population = 5.
..............
..............
..............
..............
..............
..............
..............
..............
..............
.....**.......
....*.*.......
......*.......
..............
..............

Generation = 9, Population = 5.
..............
..............
..............
..............
..............
..............
..............
..............
..............
.....**.......
......**......
.....*........
..............
..............

Generation = 10, Population = 5.
..............
..............
..............
..............
..............
..............
..............
..............
..............
.....***......
.......*......
......*.......
..............
..............

Generation = 11, Population = 5.
..............
..............
..............
..............
..............
..............
..............
..............
......*.......
......**......
.....*.*......
..............
..............
..............

Generation = 12, Population = 5.
..............
..............
..............
..............
..............
..............
..............
..............
......**......
.....*.*......
.......*......
..............
..............
..............

Generation = 13, Population = 5.
..............
..............
..............
..............
..............
..............
..............
..............
......**......
.......**.....
......*.......
..............
..............
..............

Generation = 14, Population = 5.
..............
..............
..............
..............
..............
..............
..............
..............
......***.....
........*.....
.......*......
..............
..............
..............

Generation = 15, Population = 5.
..............
..............
..............
..............
..............
..............
..............
.......*......
.......**.....
......*.*.....
..............
..............
..............
..............

*** Life<ConwayCell> 5x3 ***

Generation = 0, Population = 7.
.**
.*.
..*
*.*
..*

*** Life<ConwayCell> 2x24 ***

Generation = 0, Population = 5.
...............*........
....**.....*......*.....

*** Life<ConwayCell> 2x12 ***

Generation = 0, Population = 14.
****...**..*
*..*****...*

*** Life<ConwayCell> 6x1 ***

Generation = 0, Population = 5.
*
*
*
*
*
.

*** Life<ConwayCell> 6x19 ***

Generation = 0, Population = 10.
..................*
*.............*.*..
....*...........**.
.........*.......*.
...................
.......*...........

*** Life<ConwayCell> 17x19 ***

Generation = 0, Population = 14.
...................
...................
...................
...................
...*...............
...................
...........**......
...................
.......*...........
*.*................
......*.........*..
...................
...*.............*.
................*..
..............*....
...................
.*................*

Generation = 7, Population = 0.
...................
...................
...................
...................
...................
...................
...................
...................
...................
...................
...................
...................
...................
...................
...................
...................
...................

Generation = 14, Population = 0.
...................
...................
...................
...................
...................
...................
...................
...................
...................
...................
...................
...................
...................
...................
...................
...................
...................

Generation = 21, Population = 0.
...................
...................
...................
...................
...................
...................
...................
...................
...................
...................
...................
...................
...................
...................
...................
...................
...................

Generation = 28, Population = 0.
...................
...................
...................
...................
...................
...................
...................
...................
...................
...................
...................
...................
...................
...................
...................
...................
...................

*** Life<ConwayCell> 7x10 ***

Generation = 0, Population = 26.
.*...*..*.
......**.*
..*.*..*..
.*...**.**
...*...**.
***....*..
*.***..*..

*** Life<ConwayCell> 11x13 ***

Generation = 0, Population = 38.
......*.*....
..*..*..*.**.
.......*..*.*
...*.....**.*
.***....*..*.
...**.**..*..
...*.*.......
........*....
.......**.**.
...*.....*...
..*..**...*.*

*** Life<ConwayCell> 14x13 ***

Generation = 0, Population = 7.
.............
.............
.............
........*....
......*......
..........*..
.............
..*..........
............*
....*........
.............
.............
........*....
.............

Generation = 7, Population = 0.
.............
.............
.............
.............
.............
.............
.............
.............
.............
.............
.............
.............
.............
.............

Generation = 14, Population = 0.
.............
.............
.............
.............
.............
.............
.............
.............
.............
.............
.............
.............
.............
.............

Generation = 21, Population = 0.
.............
.............
.............
.............
.............
.............
.............
.............
.............
.............
.............
.............
.............
.............

Generation = 28, Population = 0.
.............
.............
.............
.............
.............
.............
.............
.............
.............
.............
.............
.............
.............
.............

Generation = 35, Population = 0.
.............
.............
.............
.............
.............
.............
.............
.............
.............
.............
.............
.............
.............
.............

*** Life<ConwayCell> 17x16 ***

Generation = 0, Population = 29.
**.......*......
.....*.*........
...*.......*....
........*.......
...*.*.*........
................
................
......*......*..
............*...
......*........*
*..........**...
....*...........
....*.....*.....
................
..........*...**
..*........*...*
*...............

*** Life<ConwayCell> 12x1 ***

Generation = 0, Population = 8.
*
.
.
*
.
*
.
*
*
*
*
*

*** Life<ConwayCell> 17x3 ***

Generation = 0, Population = 17.
**.
.**
..*
...
...
...
..*
.*.
**.
**.
...
...
.**
..*
..*
**.
...

Generation = 34, Population = 4.
.*.
*.*
.*.
...
...
...
...
...
...
...
...
...
...
...
...
...
...

*** Life<ConwayCell> 21x21 ***

Generation = 0, Population = 5.
.....................
*....................
.............*.......
.....................
.....................
.....................
.....................
.....................
.....................
................*....
.....................
.....................
.....................
.....................
.....................
.....................
.....................
.............*.......
.....................
.....................
.......*.............

Generation = 13, Population = 0.
.....................
.....................
.....................
.....................
.....................
.....................
.....................
.....................
.....................
.....................
.....................
.....................
.....................
.....................
.....................
.....................
.....................
.....................
.....................
.....................
.....................

*** Life<ConwayCell> 16x8 ***

Generation = 0, Population = 32.
.....*..
*.**..*.
..****..
.*....**
...**...
....*...
...**..*
.....*..
.......*
..*..*..
...*..*.
........
....*..*
....**..
....*.*.
*..*....

*** Life<ConwayCell> 16x2 ***

Generation = 0, Population = 13.
*.
..
*.
..
*.
.*
*.
**
.*
.*
.*
..
.*
.*
*.
..

Generation = 15, Population = 0.
..
..
..
..
..
..
..
..
..
..
..
..
..
..
..
..

*** Life<ConwayCell> 14x29 ***

Generation = 0, Population = 39.
.....*.............*.........
.........*..*........*.....*.
.................*..*........
..**....*...........*.....*..
*......*..**..........*......
..........*............*.....
..*....................*.*..*
..................*.........*
.**..........*........*......
.......*...............*.....
...................*.........
........*....................
.........................*...
.*..*.*.........*............

*** Life<ConwayCell> 25x25 ***

Generation = 0, Population = 6.
.........................
.........................
.........................
.........................
.........................
.........................
.........................
.........................
.........................
.........................
.........***.............
.........***.............
.........................
.........................
.........................
.........................
.........................
.........................
.........................
.........................
.........................
.........................
.........................
.........................
.........................

Generation = 1, Population = 6.
.........................
.........................
.........................
.........................
.........................
.........................
.........................
.........................
.........................
..........*..............
.........*.*.............
.........*.*.............
..........*..............
.........................
.........................
.........................
.........................
.........................
.........................
.........................
.........................
.........................
.........................
.........................
.........................

Generation = 2, Population = 6.
.........................
.........................
.........................
.........................
.........................
.........................
.........................
.........................
.........................
..........*..............
.........*.*.............
.........*.*.............
..........*..............
.........................
.........................
.........................
.........................
.........................
.........................
.........................
.........................
.........................
.........................
.........................
.........................

Generation = 3, Population = 6.
.........................
.........................
.........................
.........................
.........................
.........................
.........................
.........................
.........................
..........*..............
.........*.*.............
.........*.*.............
..........*..............
.........................
.........................
.........................
.........................
.........................
.........................
.........................
.........................
.........................
.........................
.........................
.........................

Generation = 4, Population = 6.
.........................
.........................
.........................
.........................
.........................
.........................
.........................
.........................
.........................
..........*..............
.........*.*.............
.........*.*.............
..........*..............
.........................
.........................
.........................
.........................
.........................
.........................
.........................
.........................
.........................
.........................
.........................
.........................

Generation = 5, Population = 6.
.........................
.........................
.........................
.........................
.........................
.........................
.........................
.........................
.........................
..........*..............
.........*.*.............
.........*.*.............
..........*..............
.........................
.........................
.........................
.........................
.........................
.........................
.........................
.........................
.........................
.........................
.........................
.........................

Generation = 6, Population = 6.
.........................
.........................
.........................
.........................
.........................
.........................
.........................
.........................
.........................
..........*..............
.........*.*.............
.........*.*.............
..........*..............
.........................
.........................
.........................
.........................
.........................
.........................
.........................
.........................
.........................
.........................
.........................
.........................

Generation = 7, Population = 6.
.........................
.........................
.........................
.........................
.........................
.........................
.........................
.........................
.........................
..........*..............
.........*.*.............
.........*.*.............
..........*..............
.........................
.........................
.........................
.........................
.........................
.........................
.........................
.........................
.........................
.........................
.........................
.........................

Generation = 8, Population = 6.
.........................
.........................
.........................
.........................
.........................
.........................
.........................
.........................
.........................
..........*..............
.........*.*.............
.........*.*.............
..........*..............
.........................
.........................
.........................
.........................
.........................
.........................
.........................
.........................
.........................
.........................
.........................
.........................

Generation = 9, Population = 6.
.........................
.........................
.........................
.........................
.........................
.........................
.........................
.........................
.........................
..........*..............
.........*.*.............
.........*.*.............
..........*..............
.........................
.........................
.........................
.........................
.........................
.........................
.........................
.........................
.........................
.........................
.........................
.........................

Generation = 10, Population = 6.
.........................
.........................
.........................
.........................
.........................
.........................
.........................
.........................
.........................
..........*..............
.........*.*.............
.........*.*.............
..........*..............
.........................
.........................
.........................
.........................
.........................
.........................
.........................
.........................
.........................
.........................
.........................
.........................
