28

7 15
9
2 1
5 3
5 12
2 9
4 2
4 12
1 12
3 2
4 11
11 1

3 2
6
0 1
0 1
0 0
2 0
1 0
0 0
40 2

6 10
17
5 4
3 2
1 9
4 7
0 7
4 0
2 1
0 2
4 3
3 2
5 4
0 9
2 8
2 7
4 5
1 7
5 6
22 1

4 18
1
2 4
48 2

20 6
10
0 0
0 1
7 1
18 3
18 1
13 4
5 3
19 1
9 5
10 3
1 1

3 19
17
0 1
1 18
1 16
0 10
1 11
0 10
1 0
0 6
0 10
2 8
1 13
2 17
1 11
0 11
2 11
2 17
1 11
24 1

2 15
5
0 12
1 3
0 14
0 14
0 3
29 2

5 2
18
3 1
2 0
0 0
0 0
0 0
4 1
1 0
2 1
3 0
1 0
0 0
2 0
4 0
1 1
3 0
1 0
4 1
1 0
36 2

18 4
23
16 3
8 2
14 0
15 1
15 0
15 0
15 1
7 1
12 1
1 1
11 1
11 0
4 1
5 2
1 0
1 1
1 0
3 0
17 1
11 1
11 3
13 1
6 2
31 2

18 7
17
4 0
17 6
0 3
13 3
8 4
14 3
8 4
1 6
12 5
17 1
12 5
8 3
16 0
5 2
8 3
6 6
2 5
3 1

19 5
23
1 2
14 3
10 2
0 4
8 2
18 1
13 1
10 4
18 4
16 1
11 4
6 2
0 0
16 4
11 3
2 4
18 4
17 4
8 2
4 1
15 0
8 1
12 1
7 1

5 17
4
4 8
0 0
3 7
1 2
17 1

14 9
23
12 5
9 7
6 2
7 3
1 7
9 6
12 2
0 0
12 4
5 2
12 2
4 1
5 8
11 0
9 1
10 2
0 5
8 8
10 6
6 5
2 4
9 1
8 4
1 1

10 13
1
8 2
35 2

18 17
6
1 15
3 6
11 9
15 6
14 1
12 9
50 3

10 3
21
6 2
7 1
6 1
0 0
6 2
5 0
5 1
8 0
8 0
3 0
1 0
6 1
9 1
7 0
3 2
6 2
8 1
5 2
8 2
0 1
7 0
49 2

10 17
14
8 10
4 12
0 6
9 9
5 7
5 9
3 2
1 14
2 7
8 8
4 12
2 7
9 7
3 6
40 2

6 4
1
2 0
42 2

3 14
16
0 9
0 11
0 5
0 10
0 2
2 10
2 9
0 4
1 7
2 1
2 5
2 10
0 10
1 4
0 4
2 6
12 1

9 19
9
5 13
6 7
8 16
1 17
7 16
2 6
3 4
3 8
2 18
2 1

19 12
5
8 8
12 11
13 1
6 6
18 9
47 2

11 17
6
5 12
3 4
1 8
2 7
6 0
8 0
24 1

3 7
1
2 1
17 1

14 3
14
4 0
11 1
3 1
7 1
8 1
4 1
12 2
3 2
6 1
1 0
6 2
4 0
9 2
6 2
33 2

18 5
19
11 4
9 1
15 2
4 4
12 1
10 3
17 2
14 2
2 0
9 4
6 0
4 0
3 1
7 0
0 2
8 2
10 1
1 2
15 4
22 1

12 7
21
3 0
9 5
9 0
3 1
6 5
6 2
11 6
0 1
6 4
0 4
5 2
3 5
8 5
9 6
8 4
8 4
6 4
9 5
11 3
2 6
10 5
43 2

8 14
9
2 6
5 13
6 8
7 4
4 2
5 5
5 9
7 13
0 4
19 1

20 6
22
2 3
12 0
18 3
14 0
6 1
3 0
10 3
19 1
3 3
15 0
4 4
10 2
9 5
14 0
18 4
8 4
8 5
15 3
6 2
1 1
17 1
9 1
7 1
