*** Life<FredkinCell> 15x17 ***

Generation = 0, Population = 16.
------0-----0----
0------------0---
--0--------0-----
--0----------0---
----0--------0---
----0-------0----
--0-------0------
-----0----------0
-----------------
-----------------
-----------------
-----------------
-----------------
-----------------
-----------------

Generation = 135, Population = 133.
-+++++----+-++-+-
++--+++-+++--+--+
+++---+--+-++----
--+--++++++-+--++
+-++-++-+--+---+-
-++--++-++---+++-
+-+--++--+-+-+--+
++++--++-++--++-+
-+++-++++---+++-+
-----+-6--+7-+--+
--+++-++-+++++++-
-+++++++-+++++-++
+-+7+++---+6--+--
---5+-----+---+-+
+-+------2---2---

Generation = 270, Population = 121.
-+---++---+---+-+
---+-+--++++-++-+
+++--+-++---+----
-+-+--+-+---++-++
-++++---+++++-+--
-+--+++-+-+-+--++
---++++---++++---
++-++-+++-----+++
+---+++++----++++
--+++---------+++
+-----++++----++-
--++-+-++---++-++
--+------++++-++-
+++---++-+-5-++--
----+-+---++---++

Generation = 405, Population = 103.
--+--+-++-+-+-+-+
---++--+-------++
+--+--+---+++++-+
--+-++---++-++---
--++-++-++----++-
-+-++--+--++--+++
-++++-++++--++--+
+--++--+-+--+++--
--++-----++++-+--
-+--+-----++++-++
--+-++--++++++++-
+---+--+--+++-+-+
-+------+-+--+---
-----------------
-----------------

Generation = 540, Population = 125.
++-+-+-+---++++-+
-+--+-+-----+-+--
+-++--+-+-+--+++-
++---++-++------+
--+--++-+--+++---
++---++---+---+--
++-+-+++++-+-++--
++----+-+++--+---
++++++----++-++++
-+---++--++-+---+
+-+---+---++--+-+
++--+-+-+++--+--+
----+-+---+--+--+
+++--+--++--+++-+
-8-++++-++-++9+++

Generation = 675, Population = 99.
-++-+-+-+--+-++-+
+++-+---++-+--+-+
++---+-++-++++---
+-+------+-+++-++
+++++--+++----+++
+-+-++-+++++--++-
-+-++++--+++--+--
--++-+--+--+-++-+
+++--+++++++----+
--+-+-+---+----+-
+-+-+++-+-+-+-+--
-----------------
-----------------
-----------------
-----------------

Generation = 810, Population = 107.
-+++-+--+-++--++-
+-----+-+++--+-+-
---++-+-+---++---
+-+-+-++-++--+++-
---+-++--+++--+-+
-+---+-+-++-----+
++-+++++++--+++--
+-----++---+--+++
---++--++-+-+----
----+-+++-+--++-+
--+--++-++--+-+-+
-++--+++---------
---++-----------+
++---+------+----
-++-++--+-+-+-+--

Generation = 945, Population = 65.
-----+---++-+++++
+-++---+++-+--+--
--+-+-++-+-++----
---+++------+----
+-+-+-++--++++---
+--++++--++--+---
-+-++-+--+----+-+
+-----+++-+-+---+
+-+-+++--+---+---
-----------------
-----------------
-----------------
-----------------
-----------------
-----------------

Generation = 1080, Population = 70.
----+-+-+-+-+---+
-++-++------+---+
--++-+-+-----+--+
-+--+-----+-++--+
-+-+++--------++-
--+--+--+-+--++--
+-------+---+---+
+-+------+---+---
+---+------------
-----++-+----+---
---++-----+----+-
----++----+--+---
--+--+------++---
--+-+-------+-+--
--+-+-----+-----+

Generation = 1215, Population = 129.
+-++--+---+----+-
+--+-+-+++-+--+-+
+-+++-++-+---+-+-
--++++-+-++-+--+-
---+++-++-+----++
++--+-+--++++-+--
+++-+++--+--+---+
-++----+-+---+++-
-+-+--+---+-++++-
+++-++------+++-+
++++++----++-+-+-
-++-+-+--++++++--
---+++-+++++-++--
-+-+++++-++-+--+-
+---++--+--+----+

Generation = 1350, Population = 90.
+---+--+-++---+--
-----+-+++--+--+-
+-+--++-+--+--+-+
---++---++-++-+--
--------------+++
+++--++----+++-+-
----+-----+-+-+--
--+++-+++---++-++
----+---+---+--++
-+---++--++-++--+
--+-+-+---+--++-+
---++--+----+-+-+
--+-------+------
+-+-+++-+-+-+-+--
-----------------

Generation = 1485, Population = 129.
---+--++---++-+-+
+-+-++++--++++---
++-++-++-----++--
-+++-++-+-+--++-+
+--+--+-++--++---
---+---+----+++--
--+---++-+--+---+
+++-+-++-++----++
-+-+-+-+-+-+-++-+
+++++++-----++++-
+++-++-+++++-+++-
----+++-+-+++---+
++----+-+-+++--++
---++++----+++++-
---+--+-+++--++--

Generation = 1620, Population = 80.
---+-+++++-++---+
+++---+-+----+---
--+++-+----++--+-
+++---+-+-+---+--
++--++--+++--+---
+-+-+++--+-------
+-+++--+--++-----
-+--+-+--++-+++-+
-----++--++---+-+
+-+-----------+-+
+---+---------+-+
+-+-+++--+---+---
-----------------
-----------------
-----------------

Generation = 1755, Population = 140.
++---++++--+-+++-
--+-++++++----+-+
++-----+---+-+++-
+--+-+---+-+++-+-
++---+-++---++++-
-++++-+-++-+++-++
+-+-++++++++++--+
-+++++++-+++++-++
+----+--++++-+-++
+++--+---++---++-
-+-++-+-+----++--
-+-+-+++---+-+++-
+-++++-++++--+-++
---+----+---+++-+
+-+++------+---++

Generation = 1890, Population = 60.
--+---++--++--++-
-++++-----+-+----
++---+--+-+-+----
++-+----+-+-----+
--+++--++-+++--++
+----+--++-------
++------+-----+-+
--+-+---+--++-+-+
--------+---+----
-+--+++--+--+-+--
-----------------
-----------------
-----------------
-----------------
-----------------

*** Life<FredkinCell> 8x18 ***

Generation = 0, Population = 12.
-----0-------0----
-----0-------0----
0---------0-------
---0----------0---
0----------0------
-----0----------0-
------------------
------------------

Generation = 171, Population = 77.
+---+-+-+++-+-----
+++++--++--+-+++-+
+-++--+-+++-+-+++-
----+++++--++-----
++--+++----+++-++-
+-+-+++-+--+-----+
-----+++-++---+-++
+++++++-++++-++-+-

Generation = 342, Population = 86.
--+--++++++--++-+-
+-+++-+++---+--+++
-+-+-++--+-----+++
-++++--++-++-++--+
+++-++-+++--++-+++
++-+++-++--+++--++
+----+-++--+++++-+
+---+++++++--++--+

Generation = 513, Population = 75.
--++--+---++-++-+-
+-+++++-+-+--+++++
-++-+----++++-+--+
+++----++-+-++--++
+-------+++-++--++
+-++--++--+++--++-
+++++-+--+--++----
+---+++---+-+++---

Generation = 684, Population = 65.
-++---+-++--+-+---
++-++--++++-+----+
+++-+-++--+-++---+
+----+-+----+-+---
-++++--+--++-++--+
-+-++-+-+--+-+-+-+
-+--+++-++-+-+--+-
-----+-+++----+---

Generation = 855, Population = 66.
++-+----++---+--++
-++--++-+-++--++++
+++-+--+--+++--+--
---+++------++----
++---+--++-+---+--
--+-+--+--+---+-+-
-+++----++++++---+
+-+++--+---++-+-++

*** Life<FredkinCell> 6x11 ***

Generation = 0, Population = 10.
0------0---
----0-----0
-----0---0-
-0--------0
----0--0---
-----------

Generation = 81, Population = 27.
---+--+-+7+
----+++-+-+
-4-+-----+-
---8-+----+
-9+--+---++
97-7-+-5-+-

Generation = 162, Population = 29.
---+--+++-+
++-++++--+-
------++---
+++--+---++
---++-+-+--
--++-+--++-

Generation = 243, Population = 34.
--+-+++---+
+-+--++--++
++++++-+-++
-+--+----+-
++--++-+-++
++----++---

Generation = 324, Population = 34.
-+++-+++--+
++----+---+
+-++-+++++-
--+--+---++
+-+-++++-+-
+-+-----++-

Generation = 405, Population = 31.
+---++-++--
++-+-+--+++
-+++-++++--
+---+--+--+
+------++--
-+--+--+++-

Generation = 486, Population = 33.
-------++-+
--++++--+--
+---+---+-+
+--++--+-++
+-+-+-+-+--
++++++++-++

Generation = 567, Population = 37.
+---+---+-+
-+-++++++--
-+-+-----++
++-++++--++
+++--+++++-
++---++--++

Generation = 648, Population = 20.
----+++-++-
-----------
+----+-+-+-
--+-++---+-
+-+-+--+--+
-+--+------

Generation = 729, Population = 25.
-+--+-+-+-+
+--+---+---
-+----+-+-+
+-+-++-+---
-+-+-++-+-+
----+--+---

Generation = 810, Population = 26.
--+---+----
-+-++---+-+
+--+--+---+
---+-++--++
--+++-+++--
+-+--+---+-

Generation = 891, Population = 36.
++++----++-
++----++---
--++++-++-+
+-+---++-++
+++-+---+++
-++-+--+-++

Generation = 972, Population = 35.
+++-++-+--+
++--++--+-+
-++-+-+--+-
+----+--+-+
-+++-+++--+
--+-+-+-+++

Generation = 1053, Population = 34.
---+-++++++
--+--+-++-+
++-+--+---+
-+----+--++
+---++-++--
+-+++++-+-+

Generation = 1134, Population = 28.
+---+--+--+
--+++--++-+
+---+--+---
+-+-----++-
+-----++--+
--++-++-+++

Generation = 1215, Population = 37.
--++++++---
+++-+++--+-
++++----+++
-+-+++---+-
-++--++--+-
--+-+-+++++

Generation = 1296, Population = 18.
----+-+-+--
-+--+------
----+--+---
-++--+---+-
+-+--+---++
----+-----+

Generation = 1377, Population = 30.
---++-+-+++
+---+-+++--
-++--+---++
-++---+-++-
-++---+-+--
---+++-+--+

Generation = 1458, Population = 16.
--+----+---
-++---+-+--
+--++------
---++---+--
--+---+----
-+--------+

Generation = 1539, Population = 29.
----++-++-+
--+-++-+--+
--+---+++--
+---+++--+-
++-++---+++
--+----+--+

Generation = 1620, Population = 34.
-+-++-+-+++
--+-+-+-+++
-----+-++++
++----+---+
-++-+++++-+
----+++-+--

Generation = 1701, Population = 35.
-++------++
-++++----++
+-+-+--++-+
-+-+-++--++
-++++-+++--
--++-++++--

Generation = 1782, Population = 29.
-------++--
+--+++---+-
+-+-+-+-+--
+++++-+--+-
+-+----+---
+-+-+++++--

*** Life<FredkinCell> 4x18 ***

Generation = 0, Population = 4.
-----0----------0-
--------0-0-------
------------------
------------------

Generation = 66, Population = 28.
--88+--++-+----++-
--+-+-+-------+-+-
---85+-9+-----+--+
6-9---7-+-+-+-+-+-

Generation = 132, Population = 29.
++++-++--+++++-+--
--+-+-+-+---+-+-+-
-++---++-+--+---++
--+---+-----------

*** Life<FredkinCell> 12x8 ***

Generation = 0, Population = 10.
---0---0
----0--0
--0--0--
-0---0--
----0--0
--------
--------
--------
--------
--------
--------
--------

Generation = 56, Population = 32.
9---8+++
-9+-+---
5---+---
---+---+
------8+
----++--
-+---++-
+8------
8---7---
-3----++
-+++--+9
---5----

*** Life<FredkinCell> 8x19 ***

Generation = 0, Population = 14.
-------0---0-------
--------0-------0--
------0----0-------
----0-----0--------
------0-------0----
---0----------0----
------0------0-----
-------------------

Generation = 80, Population = 47.
-+-+--++-+----+----
---+-------++---+-7
++----++++---+-++--
+--+----+-------+--
-6-----+++---+--+--
+---+-+-+-++-------
-----+-++--+---+-+-
----+---+-++--+----

Generation = 160, Population = 59.
+----------+-+--+--
---+--+-+--++-----+
---+-++++--+--+--+-
+---+-+-+-+++-----+
+----+++-------+++-
---++-----+++---+-+
++-+-+++++-+--+--+-
---++---+-+-+-+-+-+

Generation = 240, Population = 59.
-+---+++-+-+--++++-
---++-+-+-++-------
-----+---------+-+-
+---+-+---+-+-+---+
---+---++--+-+++---
+--+--+-+--+--+----
-+-+-+++++-+--+-++-
+--++-----+++-+-+-+

Generation = 320, Population = 53.
++-------+---+-++--
---++-----+---+----
-----------+-++++--
+---+-----++----+--
-------++----++++--
----+-+-+-+++-+---+
++-+-++-++-+-+-+++-
---++-----+++---+-+

Generation = 400, Population = 59.
-+---+++++-+-++--+-
----+-+-+-+++-+---+
+--+-++------+--++-
+-----+----++---+-+
-+-----+++-----+---
+--++-+---+++-+-+-+
++-+-++-++-+-----+-
----+-----+-+-----+

Generation = 480, Population = 53.
---+-+--+-----++++-
+---+-+-+-++-------
---+-++-+--+-++--+-
+---+-----++----+--
++-+-+++-+-------+-
----+---+-+++-+---+
++----+-++-+-+-++--
----+-+---+--------

Generation = 560, Population = 46.
------+-+--+--+++--
+--+--+-----+-----+
++-+-+-+-+-+--++++-
+--+--+-+--+--+----
---+-+-+---+-----+-
+-----+-----+-+---+
--------+--+-+-----
+---+---+-++-------

Generation = 640, Population = 51.
---+-+++---+--+--+-
+---+-+---+++---+-+
+----++-+----+-+++-
+--+---------------
+----+-+-----++--+-
---++---+-++-------
-+----+-++-+--++---
+--++-+-+-++--+----

Generation = 720, Population = 34.
+-------+----++-+--
+--+--+-+-------+--
-+---+---+----+--+-
---++-----+---+----
-----------+--+----
+---+-+---+---+----
+------++-----+-+--
+-----+-------+----

Generation = 800, Population = 49.
-----+-++--+---+-+-
--------+-------+--
+-----+-+--+--++---
+--++---+-++--+----
++---++--+---+-+-+-
+-------+--++-----+
++-+-+--++----++++-
---+-------++---+-+

Generation = 880, Population = 50.
+--+--+++--+-++----
+-----+----+----+--
+--+-++----+-+-+-+-
+--+--+-+-------+--
-+-+-++--+-+-+-+-+-
+--++-----+--------
---+-+-+-----+---+-
+--+-------++-+-+-+

Generation = 960, Population = 55.
+--+---+---+-+-----
----+-+-+-+-+---+-+
++---+--++---+++-+-
---++---+-+++-----+
++-+--++-+-+----+--
---+--+----++---+-+
-+----++-+-+--+-+--
---++-+-+-++-------

*** Life<FredkinCell> 7x4 ***

Generation = 0, Population = 6.
--00
--00
0--0
----
----
----
----

Generation = 159, Population = 8.
-+--
-+--
----
--+-
-+-+
+-+-
-+--

*** Life<FredkinCell> 11x4 ***

Generation = 0, Population = 6.
--00
0--0
--00
----
----
----
----
----
----
----
----

Generation = 74, Population = 14.
++-+
+7++
+++-
+--+
--+6
----
----
----
----
----
----

Generation = 148, Population = 16.
++-+
++++
++-+
----
--++
0--+
--++
----
----
----
----

Generation = 222, Population = 20.
+++-
-++-
----
-++-
--++
0+++
+++-
+--+
--++
----
----

Generation = 296, Population = 22.
++-+
++++
++-+
----
--++
0--+
--++
----
--++
+--+
--++

Generation = 370, Population = 26.
+++-
-++-
----
-++-
--++
0+++
++-+
----
++-+
++++
++-+

Generation = 444, Population = 18.
++-+
++++
++-+
----
----
----
----
----
+++-
-++-
+++-

Generation = 518, Population = 26.
+++-
-++-
--++
++++
++-+
----
+++-
-++-
++-+
+--+
--++

Generation = 592, Population = 20.
+++-
-++-
+++-
----
--++
0--+
--++
----
--++
+--+
--++

Generation = 666, Population = 28.
--++
+--+
+++-
++++
----
0+++
++-+
----
++-+
++++
++-+

Generation = 740, Population = 14.
----
----
----
----
--++
0--+
--++
----
+++-
-++-
+++-

Generation = 814, Population = 22.
----
----
--++
+--+
+++-
0+++
----
++++
+++-
+--+
--++

Generation = 888, Population = 6.
--++
+--+
--++
----
----
----
----
----
----
----
----

Generation = 962, Population = 14.
++-+
++++
+++-
+--+
--++
----
----
----
----
----
----

Generation = 1036, Population = 16.
++-+
++++
++-+
----
--++
0--+
--++
----
----
----
----

Generation = 1110, Population = 20.
+++-
-++-
----
-++-
--++
0+++
+++-
+--+
--++
----
----

Generation = 1184, Population = 22.
++-+
++++
++-+
----
--++
0--+
--++
----
--++
+--+
--++

Generation = 1258, Population = 26.
+++-
-++-
----
-++-
--++
0+++
++-+
----
++-+
++++
++-+

Generation = 1332, Population = 18.
++-+
++++
++-+
----
----
----
----
----
+++-
-++-
+++-

Generation = 1406, Population = 26.
+++-
-++-
--++
++++
++-+
----
+++-
-++-
++-+
+--+
--++

Generation = 1480, Population = 20.
+++-
-++-
+++-
----
--++
0--+
--++
----
--++
+--+
--++

Generation = 1554, Population = 28.
--++
+--+
+++-
++++
----
0+++
++-+
----
++-+
++++
++-+

Generation = 1628, Population = 14.
----
----
----
----
--++
0--+
--++
----
+++-
-++-
+++-

Generation = 1702, Population = 22.
----
----
--++
+--+
+++-
0+++
----
++++
+++-
+--+
--++

*** Life<FredkinCell> 7x4 ***

Generation = 0, Population = 4.
--00
--00
----
----
----
----
----

Generation = 80, Population = 6.
++-+
0+-+
----
----
----
----
----

Generation = 160, Population = 6.
+++-
0+0-
----
----
----
----
----

Generation = 240, Population = 4.
--++
--0+
----
----
----
----
----

Generation = 320, Population = 6.
++-+
0+-+
----
----
----
----
----

Generation = 400, Population = 6.
+++-
0+0-
----
----
----
----
----

Generation = 480, Population = 4.
--++
--0+
----
----
----
----
----

Generation = 560, Population = 6.
++-+
0+-+
----
----
----
----
----

Generation = 640, Population = 6.
+++-
0+0-
----
----
----
----
----

Generation = 720, Population = 4.
--++
--0+
----
----
----
----
----

Generation = 800, Population = 6.
++-+
0+-+
----
----
----
----
----

Generation = 880, Population = 6.
+++-
0+0-
----
----
----
----
----

Generation = 960, Population = 4.
--++
--0+
----
----
----
----
----

Generation = 1040, Population = 6.
++-+
0+-+
----
----
----
----
----

Generation = 1120, Population = 6.
+++-
0+0-
----
----
----
----
----

*** Life<FredkinCell> 16x7 ***

Generation = 0, Population = 10.
0----0-
---0--0
---00--
0-----0
-0----0
-------
-------
-------
-------
-------
-------
-------
-------
-------
-------
-------

Generation = 199, Population = 70.
+++-+++
+-+-+-+
+++-+++
-------
+++-+++
+-+-+-+
+++-+++
-+----+
++--+--
+++-++-
++++-++
+++--++
-+-++-+
-++++++
+---+-+
++++---

*** Life<FredkinCell> 17x14 ***

Generation = 0, Population = 22.
--0-----0-----
--0------0----
-------0----0-
----0-----0---
----0--------0
---0----0-----
----0----0----
-0---------0--
0-----------0-
---0-----0----
------0-0-----
--------------
--------------
--------------
--------------
--------------
--------------

Generation = 11, Population = 107.
--22003632312-
-1----------0-
0-2-74--46--31
--1-3140--1-60
-251---2----4-
---540-4---12-
01-2--041---02
1--131-4-2----
113--00-13---2
--1--1-3-----1
00-011-32--1--
0-0-2-----1--0
----3011-3-10-
0--02--0100---
----1--1--0---
0---0-----0001
-0-0-----200--

Generation = 22, Population = 108.
--5--5--4-615-
--574+----67--
----8--1+-5462
4---6--12251+-
3---3-----9-42
-4-9---4--3671
0-----37--4-3-
-5-451-53625--
325189--39-3-5
--5-24--4-34--
2----13-84-45-
--26-----27-2-
-3--73-41-----
22-4-2-24-2---
2-2----75-----
--1----1-4233-
-1-1--36--1---

Generation = 33, Population = 89.
6472387----393
5-------++---5
6--4-8---+-69-
-9-58-+--5----
-9-5----35--75
-95+-4-5-4-6-5
--628+68--468-
4-85-3---+---9
-8--+--57-9-77
--7-4-17--7-35
---3---5--94--
--6---2-73----
---2-----+---2
3-4-7-6---6-2-
---3-4--------
------4-4-----
--------------

*** Life<FredkinCell> 10x11 ***

Generation = 0, Population = 10.
---0---0---
--0-------0
---0------0
----0---0--
-0------0--
-----------
-----------
-----------
-----------
-----------

Generation = 186, Population = 45.
--++++--+++
+-+---+---+
+++-+-++++-
--+---+----
-+------+--
--+-+-+-+--
-++-+++++--
-----------
-++-+++++--
--+-+-+-+--

Generation = 372, Population = 46.
--+-+-+-+--
+-+-+-+----
--+-+-+++-+
+-+-+-----+
-+------+--
+-+-----+-+
--+++-+++--
+---+-+---+
++++---++++
--+-+-+-+--

Generation = 558, Population = 33.
-+-+-++---+
+-+---+---+
----+-++--+
----+---+--
---+---+++-
-----------
++-++++---+
-----------
+--++++--++
-----------

Generation = 744, Population = 10.
---+---+---
--+-------+
---+------+
----+---+--
-+------+--
-----------
-----------
-----------
-----------
-----------

Generation = 930, Population = 45.
--++++--+++
+-+---+---+
+++-+-++++-
--+---+----
-+------+--
--+-+-+-+--
-++-+++++--
-----------
-++-+++++--
--+-+-+-+--

Generation = 1116, Population = 46.
--+-+-+-+--
+-+-+-+----
--+-+-+++-+
+-+-+-----+
-+------+--
+-+-----+-+
--+++-+++--
+---+-+---+
++++---++++
--+-+-+-+--

Generation = 1302, Population = 33.
-+-+-++---+
+-+---+---+
----+-++--+
----+---+--
---+---+++-
-----------
++-++++---+
-----------
+--++++--++
-----------

*** Life<FredkinCell> 13x4 ***

Generation = 0, Population = 6.
-0-0
--00
0--0
----
----
----
----
----
----
----
----
----
----

Generation = 67, Population = 24.
-++-
-+--
++--
---+
+++-
+---
+--+
----
+--+
+++-
+6++
-+--
-+-+

Generation = 134, Population = 24.
-+-+
--++
+--+
----
+--+
--++
-+-+
----
-+-+
--++
++++
6+9-
---+

Generation = 201, Population = 25.
-+++
-+++
-+--
+--+
---+
++--
++--
-++-
++-+
----
++-+
----
++-+

Generation = 268, Population = 14.
---+
+++-
-++-
----
----
----
----
----
+--+
--++
-+-+
----
++--

Generation = 335, Population = 22.
-+-+
+-++
+-++
----
+-++
-+--
---+
---+
--++
---+
---+
-+--
+-++

Generation = 402, Population = 31.
++++
++-+
--+-
+++-
++--
+++-
++-+
----
++-+
+++-
-+-+
++-+
+---

Generation = 469, Population = 26.
+-++
+-++
-+-+
----
-+-+
+-++
+-++
----
+-++
+-++
-+-+
+--+
----

Generation = 536, Population = 14.
++-+
+++-
+-+-
----
-+-+
--++
+--+
----
----
----
----
----
----

Generation = 603, Population = 24.
+-++
++-+
-+--
-+-+
++--
----
++--
-+-+
-+--
+-++
+-+-
-+-+
--+-

Generation = 670, Population = 32.
-+--
++-+
++++
----
++++
++-+
--+-
+++-
++--
+++-
--+-
++-+
++++

Generation = 737, Population = 28.
+--+
-+++
+-+-
+--+
++++
++--
--+-
----
--+-
++--
++++
-++-
+++-

Generation = 804, Population = 21.
--++
++-+
+---
----
+---
++-+
--++
----
--++
++-+
+---
----
-+++

Generation = 871, Population = 25.
-+--
+---
--++
---+
---+
+-++
++++
---+
++-+
---+
++++
-+--
-+-+

Generation = 938, Population = 23.
+---
++-+
+-+-
--++
+--+
----
+--+
--++
+-+-
++-+
---+
--++
--+-

Generation = 1005, Population = 28.
-+++
-+++
-+--
----
-+--
-+++
-+++
+--+
--+-
++--
++++
-++-
+++-

Generation = 1072, Population = 18.
---+
+++-
-++-
----
+--+
--++
-+-+
----
-+-+
--++
+--+
----
----

Generation = 1139, Population = 27.
++++
--++
-++-
---+
-+--
-++-
-+-+
-+--
++++
-+++
++--
-+--
-++-

Generation = 1206, Population = 30.
---+
+++-
----
+++-
+++-
++-+
-+-+
+++-
+-++
+++-
-+-+
++-+
+---

Generation = 1273, Population = 35.
+-+-
-+++
+--+
++++
++-+
----
++-+
++++
+--+
-+++
+-+-
++++
+++-

Generation = 1340, Population = 25.
++-+
+++-
+-+-
----
+-+-
+++-
++-+
----
--+-
--++
+++-
----
-+++

Generation = 1407, Population = 24.
--++
+--+
-++-
-+--
++--
+++-
+-+-
----
+-+-
+++-
++--
-+--
-++-

Generation = 1474, Population = 29.
+--+
--++
--++
+++-
++-+
----
-+--
++-+
+--+
+++-
+++-
++-+
--++

Generation = 1541, Population = 28.
++--
++--
---+
+--+
-+--
-+++
-+++
+--+
--+-
++--
++++
-++-
+++-

Generation = 1608, Population = 24.
+-+-
+++-
++-+
----
+-++
----
+-++
----
++-+
+++-
+-+-
----
++--

Generation = 1675, Population = 20.
-+--
+---
--++
---+
---+
++-+
+++-
-+--
-+--
+-+-
+---
---+
+-+-

Generation = 1742, Population = 23.
+-++
----
-+--
++-+
+--+
+++-
---+
----
---+
+++-
+--+
++-+
-+--

*** Life<FredkinCell> 9x11 ***

Generation = 0, Population = 14.
--0---0----
-----00----
-----0--0--
-----00----
0---------0
0------0---
---0------0
-----------
-----------

Generation = 154, Population = 60.
---++++-++-
++-+---++-+
+-+++++++--
-++-+++++++
--+-++6+-++
-+++--+++++
++-+-++-+--
+--+++-+---
--+-++++---

Generation = 308, Population = 48.
--+++-----+
-++++-+--+-
++-++--+-+-
-++--++--++
---+-+--+-+
---++++++-+
--+-+-+++--
+-+--++-+-+
---+++-+---

Generation = 462, Population = 46.
++--++++-++
-+---+-----
++-++--++--
-+------++-
-+-+++-+-++
+--+---++++
+----+-+-+-
--+--++++--
-+++--++---

Generation = 616, Population = 32.
----++-----
-+---+++++-
++++-----++
++------++-
----+---+--
-----+-++--
--++++--+--
-----++----
+--+-------

Generation = 770, Population = 36.
+-+--++----
---++++++--
+-++---+---
+--++++-+--
+-++-+-----
+-+---+--+-
++---+--+--
+------+---
---+------+

Generation = 924, Population = 51.
++-+++-++++
+--+++-+--+
-++------+-
-----++----
++-+++++-++
--+----++-+
+++-++++++-
+-+-----+-+
-+--+++--+-

*** Life<FredkinCell> 12x17 ***

Generation = 0, Population = 14.
0-------------0--
------0--------0-
--0----------0---
--------00-------
----0------0-----
-------0--------0
------0---------0
-----------------
-----------------
-----------------
-----------------
-----------------

Generation = 158, Population = 99.
-+-+-+-+-+---+++-
+---+--++-+++-+++
+---++---++++++--
+----+-+-++--+-++
+-+--+--++-+---++
-++++-++-+++---+-
--+-++++-+-+----+
++-----+-++-----+
---++--+-+--+-+--
++--+++-+++++--++
+-+--------++-+-+
-+--++---+-++--++

Generation = 316, Population = 50.
--------+---+----
+------+---+--+--
----++----+--+---
++--------------+
--++--+-----+--++
-------++-+----++
+---+-+-+-++--+-+
-------+++------+
--+-+------+-+---
------+-++-----+-
+-+----------++--
------+--------+-

Generation = 474, Population = 99.
+-++--++-+-+--+++
---++-+++--+--+--
+-+--+-+++-+--++-
--+-+---+-+-+---+
+-+-++-+----++++-
-+++-+++-++++-++-
--++--++----++++-
+--++----+++-+-+-
-+-+--+-+-++++--+
---+--+++-+---++-
++--+--+--++--+--
+-++-+---+---+--+

Generation = 632, Population = 45.
--+-+--------+--+
---+-----+--+----
++--++-----++-+-+
-----+-+-++----++
--++--++--+--++-+
+-+----+++-+-----
+-+-+---+--++----
-------+--------+
------+---------+
-----------------
-----------------
-----------------

Generation = 790, Population = 58.
----------+++----
+----+-+++++-+-+-
------+---++--+--
----+-++-+-+++---
-----+----------+
-+--+----++---+-+
----+--+--+-++-+-
---++----+-++++--
--+-------+-+--+-
----------++---++
------+--+-------
-----+-++-----+--

Generation = 948, Population = 83.
--+-++--+---++---
-+-++------+--+--
-++++++--++--++++
--+-----+-++-+-+-
---+-+-------+++-
-++++-+--+++-----
--+-+--+---+-+-+-
+-+--+-----+----+
-++++++++--++++--
---+-+-+--+-+--++
+++--+-----++++--
---+-----+--+----

Generation = 1106, Population = 84.
--+++-+--+----+++
+-++--+---+---+++
+--+-----++---+-+
+++--+---++---+++
-++-+--++-+------
---+-++-++-+++---
----------++--+--
--+-++-+--+-+--++
--+--+++---------
+-++++++---++---+
++----+-----+----
-+---++++++++---+

*** Life<FredkinCell> 11x20 ***

Generation = 0, Population = 14.
------0----0--------
---------0--0-------
--0-----------0-----
---------0---------0
-0-----------------0
-------0------0-----
---------0---0------
--------------------
--------------------
--------------------
--------------------

Generation = 109, Population = 107.
+++-+--+-+++-----+--
--+++--+--+----+--+-
------+++-+++++-+++-
+---++----5+++++-+--
-++--+-+------++++-+
-++-+++-+++++--+-++-
++++--+-+-----++++--
8++---+---8----+8+--
-----+++++++-++-++--
++-++--+--------+---
+-++-+--+++-+--+++++

Generation = 218, Population = 118.
-++++++-++++-+-+--++
+++-+--+----+--+-+-+
--++-+-++++-++++--++
-++-+--+++++-+---+--
+++-+++------+-++-++
-+-+---++-+--+---+--
++--+++++-----++++-+
+++-++-+-+-++-+---++
+---+++++--+-++-++--
----+-+++--++++-----
----+++-++--++-++-++

Generation = 327, Population = 109.
-+-+++----+--++-++-+
-+++-++-+-+-++-+++++
+++---+++++++---++--
--+--+-+-++---+-+---
+++-+++-++--++--++--
++--+++---+-++-----+
----+--+++-+-+-+-+--
---+++-+++-+-+--+---
--++++--+--+-++-----
+-+++-++---++-++--+-
++--++---++--+--+-+-

Generation = 436, Population = 91.
--++-+--+-+-+---+--+
----+-----+----++--+
-+-+--+++-++-------+
---+-+-------------+
-++----++--++-+++--+
--------++++++++-+++
-+--++----+-+------+
-+-+-+-+---+-+-+---+
+-++-+--++++-+++--+-
++-++++---+-+--+---+
+-+--+-+++----+++--+

Generation = 545, Population = 119.
++-++++---+-++--+-+-
---+--+-+---++++--+-
+++++++-++++-++++--+
+-+--+-++--+++-+-+-+
+-+-++--+--+--++++-+
--++++-++--+++++-+++
+++++--+-+---+-+--++
-+---+---------+----
--++++--++--++-+++-+
+--+-+---+-++-+-++-+
++-++-+++-+-+--++-+-

Generation = 654, Population = 101.
-----+++---+-----+++
--+--+-+++-+-++-+--+
+-+++-++------+--+--
+-----+----+---+++++
+-++-+--+-+-+--++++-
++-++--+---+-+-+--++
------+-++--++------
-+-+-+--++------+-++
-+----++--++--++-+-+
+--+++++--+--+++++--
++++-++-++---+-+-+++

Generation = 763, Population = 117.
+++++--+-++-+-+---+-
+-++++-------+---+++
+--+--+-+-+-+++---++
+-+++--+---+++++--+-
+++++-------+++-+++-
+--+-----+------+-++
+--+--+-+++--++-++++
--+++-++++++++-+-+-+
++++++--+-+--++++-+-
+--+++-++----+-+++-+
+---++--+++-+----++-

Generation = 872, Population = 104.
++------+-++++-+++++
++--++--+---+++++-++
+--+++-+--+++++--+-+
-+-+-----+---+------
+---++-+-+++---+--++
-+++-+-++-+-++--++--
+-+-+--+++-+--+-++--
--------------------
+-+-++-+++---++++---
--+--+++-++++-++---+
+--+++-+--++-+---+++

Generation = 981, Population = 122.
-----+-++++++-++--+-
-+--++-++++-++++-+--
+++-----+--+++++-+++
+-+--+-----++++-+-++
+-+-++-+-+++--+-----
-++++-+-++--+-++++++
--++-+++-----+++++++
+--++--+++--++---++-
-+++-++++++++-+++-+-
+----++++-++-+-+----
+--++-----+--++-+++-

Generation = 1090, Population = 122.
-++++-+++-++--+--+++
+--+---+++++--++--+-
-++-+++----++-++----
+++-+-++++-+--+++---
++++--++++--+++++++-
+------+----++-++--+
+-++-++---+++++-+++-
++-++-+-+-----+--++-
+++--+++-++-+++++-++
---++--++-++-+--++-+
+-+++-++++---+------

Generation = 1199, Population = 114.
+--+-+---+-+-+++-+--
-++---+++++-+-+-+-+-
-++--++-++-+++-+++-+
+-+--++++-++++-+-+-+
--+-+-+---+-++-++--+
-+-+-+--+++++-++++-+
+-------++-++---++-+
----+-+-+-+-++-----+
+--+----++-+-++-++++
-++-++--+++----++---
-+++--+++--+---++-++

Generation = 1308, Population = 107.
+++++++-+-++---+-+++
-+-+++-++--+-++--+--
---++++--+---+---+-+
-------------+---+-+
-++++-+--++---+++---
++---+-++++--+-+-+++
++++--+-++---+--++--
---+-------+-----+-+
++--++-++++-+--+++--
-++-++++++-+++++-+-+
++-----+----+++-+-++

Generation = 1417, Population = 97.
-+-+-+----+------+-+
++++++----+----+----
+-++-+--+-+++-+--+-+
-+--++-+-+-++-+++++-
++--++++-++-++------
+--+++-++--++++-+-+-
--+---+++-----------
-+-+-+---+---+---+--
+-++-++++-+--------+
+-+-+-+-++-++-+++--+
--+-----+-+-++--+--+

Generation = 1526, Population = 108.
-++-++++-++-++--+-+-
+--++--+-+----+-+--+
++-++--+++---+-+--+-
+++--++--+-+---+++++
-++++++---+----+-+-+
+-+-+--+++-+------+-
----+-+-++--+++--++-
-++-+-+-----++-+--++
---+---++-+-+-+--+--
---++-++-++--++++-++
-+--+-+--+-++--+++++

*** Life<FredkinCell> 14x11 ***

Generation = 0, Population = 14.
-----0--0--
0-----0----
--0-----0--
-0-----0---
-----0----0
0-------0--
-----0---0-
-----------
-----------
-----------
-----------
-----------
-----------
-----------

Generation = 175, Population = 76.
-+--++--+--
---+-+-++++
--+-+--++++
-+-+-++-+--
-++-+-++-++
---++-++-++
---+---+---
+-+++++++--
-+++-+++---
------+-+--
+-++--+-++-
---++++--+-
++-------++
+++++++--++

*** Life<FredkinCell> 14x19 ***

Generation = 0, Population = 22.
----0---------0----
-----0------0------
-----0---------0---
---------0------0--
----0--------0-----
---0-------------0-
0-----------------0
---------0--0------
-0-------------0---
----0------------0-
------0------0-----
-------------------
-------------------
-------------------

Generation = 174, Population = 119.
+-+++-+--+-------++
+-++-----+--+--++++
+--++--+--++--++---
-+-----+-----+-+-++
---+-+----+--++-+--
--+--++-++--+++++-+
--+-+--+--+---+-+-+
++-+++++-+---++-++-
-+++-+++++--+---+-+
+----+--++---+++++-
-----+--++-++--+-+-
----++-+-+--+---+++
+-----++---++++++-+
+++--++---------+-+

Generation = 348, Population = 121.
+-+----++++-++--+++
--+-+++--++---+--+-
-++--+--+---+-+-+--
-++---+--+-+----+-+
--+++-++++-++--+-+-
----+++--++---+--+-
--+-+-+---+-----+++
---+-+-+-+-++-++--+
+--+--+---+--++---+
-+--+-+-+--+----+++
--+-+----++-+-+-+++
-++-+-+-+++--+++---
+-++-----+++-+++--+
-+++-+-+-+-+--++--+

Generation = 522, Population = 145.
+++++++++---+----+-
++-+-+-----++-+-++-
+++++-++-+++-++++-+
+++++++++-+---+---+
-+-+-+++---+----++-
+----+--+---++-+++-
-++++++++-+++-+-+-+
---+++-+-+--++-+--+
+++---+++-+-+++++++
-++---+--+++-+-++--
+-+++-+-++--+---+++
-+--+-+---------++-
+++--+-+-++-+-+--+-
-----+-++++++-+--++

Generation = 696, Population = 117.
++----+--+----+-+-+
+-++-++--++++----+-
+++--+----+---++++-
++++--+-++++-++--++
+++--+---++--+-----
+--++++---+--+--+-+
+++-+++-++--+++-+-+
--++----+--++++----
++--+++-+---+-+---+
-+-+-------+-+--+-+
+---++++-++-+-+++--
---+-+----+------+-
++---+-++------++-+
--+-+--------+---+-

Generation = 870, Population = 125.
----+-++-----+--+++
--+++++++-++-------
----+-++++-+++-++++
+-+++--+-++-+---+-+
-++--++++----+++--+
--+-----++----+-+--
--+-++----+-+--++++
--+---+-----+++-+--
+--+-++-+----++++++
++++-----++++-++-+-
-+-+-+--++-+--+-+--
-++++++++++++--+-+-
---+-+--+++++-+----
---++----++------+-

Generation = 1044, Population = 141.
+-++-+-++-+--++-+-+
+++----++++-++-++++
---+-+++++++----+--
--+-++-++--+-++-++-
-+-------++--++-++-
++--+-++-++++--+-+-
++------++++-+-+-++
--+-+-++-++---++---
+--++-+-+++---+++-+
-++++++---++++---++
--++-+--+++--+-+--+
+--++-++-+-+----+--
--+-+--+++-++---+-+
+++++++++---+++--+-

Generation = 1218, Population = 113.
--+----+-+--++--++-
-----++++--+++-+-+-
+---++++-----+-+---
++++-++++-+-+------
+++---+--+--+-+----
+--++------+++++---
+--+---+-++-+-++---
++---+--+--+--+-+-+
--+---+-+----++++--
-+++-+--+-++++++-+-
+-+--+-+--+--+-----
-+-------+-++---++-
-+++++++++--+--+-+-
---+---+-++---+-+--

Generation = 1392, Population = 97.
+++-----+-+---+---+
--+-++------++---++
+-+-+----+---++--+-
----+---+-----+---+
+---+-+--++---+-+--
---------++--+---++
-++---++----+---+++
--+--+--+-+--++--++
+++-++--+++-+--+--+
-+---------++-----+
+---+++++++-+------
+--++-+--++-++-----
-----+----+---+--++
-+--++----++----++-

Generation = 1566, Population = 139.
-+-----++++-++++++-
-+++-+---+-++---+--
+-++-+----+---+-+--
+--+++---+++-------
-+++-+++-++-+----++
+++---+--+---++--+-
-+-+-+---+-+-----++
+-+++--++-+--+--+--
--+++--++--+-+++++-
+++---+-+-++++-+---
+-++---+--+-+--++--
+-+-+++++-+++-++++-
++-+--++-+++++--+++
++++++++++++++----+

Generation = 1740, Population = 114.
-------+-----++--++
-++----+--++-++++++
+-+----+-++---+----
-++-++-+++---+-+-+-
--++++-++-++---++--
+---------++--+--++
--++-+---+++--+---+
+--+++--++---+-----
-+-+---++-+--++--++
------+-----+-+--+-
-+--+-++----------+
+-+-++----+-++-++--
-++-+-++++--++-+-++
++++-+--+--+-++-+++

Generation = 1914, Population = 137.
+++++-+--+--------+
++++-+---+--++-++-+
++++--+++--++--+++-
+-+---+-+-++++-++--
-+-+++-++--+-+--++-
------+--++-+-++--+
--+--+++--+-++--+-+
-+++--+-++++-----++
+++----+++---+-++--
+-+-+-++-++++--+-+-
+-++++-+-++-+-+-+++
-----+-++++-+-+-+++
+-++-+-+---+--+---+
++-++++-------++--+

*** Life<FredkinCell> 15x9 ***

Generation = 0, Population = 10.
-0------0
----0-0--
0------0-
----0-0--
--0---0--
---------
---------
---------
---------
---------
---------
---------
---------
---------
---------

Generation = 93, Population = 60.
+-+-++-++
-0+--0+0-
++-++----
+---+-+0+
------+-+
---------
------+-7
+---+-90+
++-++----
-0---0-0-
++++--+-8
---0+---7
+4+-63+6-
---0-0-0-
+3---498-

Generation = 186, Population = 54.
++-+++---
--+---+--
+-++-++-+
--+-----+
-+++---++
----+---+
--+-++-+-
---------
+---+++++
+-+-+---+
-++-+-+-+
+-+-+---+
+-++-----
+-+-+-+--
+-------+

Generation = 279, Population = 63.
--++-+-++
--+0+0+0+
++++-+-+-
---0-0+-+
++-++--+-
-0+0+----
+-++++++-
+0+0+0-0+
--+++-+-+
--+0---0+
+++-+-++-
+-------+
---------
---------
---------

Generation = 372, Population = 30.
-++++----
+-+------
+---+++++
----+-+--
+----++--
+-+-+-+--
---+--+-+
+-+-+-+--
+-------+
---------
---------
---------
---------
---------
---------

Generation = 465, Population = 25.
+-++-----
+-+0-0+0+
--+-++---
+--0--+0-
+++-+-++-
+-------+
---------
---------
---------
---------
---------
---------
---------
---------
---------

*** Life<FredkinCell> 14x4 ***

Generation = 0, Population = 6.
0--0
--00
--00
----
----
----
----
----
----
----
----
----
----
----

Generation = 63, Population = 9.
-+-+
++-+
-+--
----
-+--
--++
----
----
----
----
----
----
----
----

Generation = 126, Population = 19.
-+0-
+++-
----
+++-
0-0+
++-+
-+--
--++
--0+
----
----
----
----
----

Generation = 189, Population = 22.
-+--
+++-
---+
+++-
-+--
++-+
-+-+
----
-+-+
++-+
-+--
--++
----
----

Generation = 252, Population = 22.
-+0+
++-+
-+-+
----
0---
----
0---
----
-+-+
++-+
-+08
----
0--+
--++

Generation = 315, Population = 10.
-+-+
+++-
----
----
----
----
----
----
----
----
----
--++
-+--
--++

Generation = 378, Population = 25.
---+
--++
-+-+
+++-
0+0-
----
----
----
--0+
--++
-+0+
+++-
---+
++-+

Generation = 441, Population = 19.
---+
++-+
----
++-+
---+
----
---+
----
---+
--++
-+-+
----
-+-+
+++-

Generation = 504, Population = 26.
0--+
--++
----
--++
-+--
++-+
-+0-
--++
0+--
++-+
----
++-+
--0-
++-+

Generation = 567, Population = 20.
---+
----
---+
++-+
----
++-+
---+
----
---+
--++
-+-+
++-+
-+--
--++

Generation = 630, Population = 28.
-+-+
++-+
-+--
--++
----
--++
-+0+
+++-
0+--
----
0+--
+++-
-+0+
--++

Generation = 693, Population = 9.
-+-+
++-+
-+--
----
-+--
--++
----
----
----
----
----
----
----
----

Generation = 756, Population = 19.
-+0-
+++-
----
+++-
0-0+
++-+
-+--
--++
--0+
----
----
----
----
----

Generation = 819, Population = 22.
-+--
+++-
---+
+++-
-+--
++-+
-+-+
----
-+-+
++-+
-+--
--++
----
----

Generation = 882, Population = 22.
-+0+
++-+
-+-+
----
0---
----
0---
----
-+-+
++-+
-+0+
----
0--+
--++

Generation = 945, Population = 10.
-+-+
+++-
----
----
----
----
----
----
----
----
----
--++
-+--
--++

Generation = 1008, Population = 25.
---+
--++
-+-+
+++-
0+0-
----
----
----
--0+
--++
-+0+
+++-
---+
++-+

Generation = 1071, Population = 19.
---+
++-+
----
++-+
---+
----
---+
----
---+
--++
-+-+
----
-+-+
+++-

Generation = 1134, Population = 26.
0--+
--++
----
--++
-+--
++-+
-+0-
--++
0+--
++-+
----
++-+
--0-
++-+

*** Life<FredkinCell> 7x19 ***

Generation = 0, Population = 10.
-----0-----------0-
----0-----------0--
--------0-------0--
------0----------0-
-------0--0--------
-------------------
-------------------

Generation = 64, Population = 18.
-+---7---+-------+-
+-----+---+-------+
+-------------8----
-2---5--5-------9--
----+--3----8--3---
-------------------
-------------------

Generation = 128, Population = 17.
-+-------+---------
--+-----+---5-+----
+-------+-----+-+--
+--------+---++----
--+------------6--+
-------------------
-------------------

Generation = 192, Population = 25.
-----+-----------+-
+-+---+-+-+-7-+---+
--------+-------+--
+7---+--++---++-+--
--+-+--8----+-----+
-------------------
-------------------

Generation = 256, Population = 18.
-+---+---+-------+-
+-----+---+-------+
+-------------+----
-+---+--+-------+--
----+--+----+--+---
-------------------
-------------------

Generation = 320, Population = 17.
-+-------+---------
--+-----+---+-+----
+-------+-----+-+--
+--------+---++----
--+------------+--+
-------------------
-------------------

Generation = 384, Population = 25.
-----+-----------+-
+-+---+-+-+-+-+---+
--------+-------+--
++---+--++---++-+--
--+-+--+----+-----+
-------------------
-------------------

Generation = 448, Population = 18.
-+---+---+-------+-
+-----+---+-------+
+-------------+----
-+---+--+-------+--
----+--+----+--+---
-------------------
-------------------

Generation = 512, Population = 17.
-+-------+---------
--+-----+---+-+----
+-------+-----+-+--
+--------+---++----
--+------------+--+
-------------------
-------------------

*** Life<FredkinCell> 5x9 ***

Generation = 0, Population = 4.
--0--0---
--0--0---
---------
---------
---------

Generation = 121, Population = 14.
-++++++--
-++++++--
--+--+---
---------
---------

Generation = 242, Population = 14.
+-++++-+-
+--++--+-
--+--+---
--+--+---
---------

Generation = 363, Population = 28.
+-++++-++
+++--++++
0++--+++-
-++0++0--
--+--+---

Generation = 484, Population = 12.
++----+--
+++--++--
--+--+---
---------
--+--+---

Generation = 605, Population = 15.
------++-
-+-++--+-
0-++++---
---------
-0-++-+--

Generation = 726, Population = 25.
-+-++++-+
--+----++
-+++++++-
0++--+0--
+--++--0-

Generation = 847, Population = 20.
+-++--+++
-+++--+--
-----++--
-+-0+--0-
+--++---0

Generation = 968, Population = 12.
-+--++--+
-++-+---+
--+--+---
---------
--+--+---

Generation = 1089, Population = 20.
++-+-++++
+---++-++
--++--+-+
---------
-0-++-+--

*** Life<FredkinCell> 14x16 ***

Generation = 0, Population = 24.
--------0------0
--------0-----0-
----0------0----
-------0-------0
-----0---------0
----0------0----
--0------0------
0----------0----
--0-----------0-
---0---------0--
0----------0----
0---------0-----
----------------
----------------

Generation = 119, Population = 122.
-+++-+-+++-+--++
+8-+---+++--+++-
+-+++++---+-+-+-
+++++-+-+--+++++
--++-+4+-+-++-+-
+---+-+++----+++
-++-++-++----+++
-+---++-----+-+-
-+----+-8----++-
++----+--+---+++
+-++-+++--8-++++
-+++-4+4+--++++-
+++---8+++++8+--
++-----8+--++---

Generation = 238, Population = 116.
--+++++-+++---++
---+-+++-++--+--
++--+-+--+-+-+++
-+-++---++--+-++
+-+-++-+--+++-++
-++---++-++++-+-
++-+---+++++-+-+
++---+-++++-++-+
-++++++-++-+--++
-+---+-++-+--+--
---+-+-+----+++-
++-+--+----+----
+-+-+++++-+++---
--+++--+-+------

Generation = 357, Population = 110.
++-+-+++-+-+-+-+
+++++-+++++---++
-+--+-+------++-
+-------+-+++-++
-+-+--+++++--++-
+-+---+++-++++++
--+--++---++++-+
--+-++-+--+-+++-
+-+-++++---++-++
-+-++-+--+---++-
-+++--++---+----
+--+----+++-----
++--+---+-++----
++--+-+--++-----

Generation = 476, Population = 126.
+-+---++++-+++++
++-----+-----+--
+-+++-+-+-++-++-
+-+---++--++-+-+
--+-++-+++++++-+
+-++++-+++-+-+++
+-+-+-++-----+++
+--++----++--+++
+++++-+-++-+-+--
+-+++++++-+++++-
+---------++---+
+---++--++-+-+--
-+--++++---+--++
++++++-+++--+-++

Generation = 595, Population = 118.
+-++++-+--+++-++
+----+++--++-+--
--++---+++--++-+
-+---++-+++++++-
--++++---++++-++
----++-+++--+---
+--+++--++-++---
++-+---+---+--++
++--+++----+----
++-+----+++-++++
+-+++--------+++
-+++++--++-+--++
++++--++---+++--
+-+-++---+++-++-

Generation = 714, Population = 104.
+----+-+-+-----+
++++-+-+---++--+
+--+--+-++--+-++
+-+-+-----+--+++
++-+-----++-+---
-+-+++--+-+++---
-+--+-+-+---++--
-+++------+++++-
-+----++++++++--
---++-----+-+---
+-+-++++-+-+-+++
+-+-+--+--+-+-+-
++-+-+-+-+---+-+
+--++-+----++++-

Generation = 833, Population = 109.
-+-+--++--+-+---
----+-+-+----+-+
+-++-++--++++--+
+-+-+++++-------
---+-++-+--++++-
-+-++--++--++-++
++-+-+-+++-+++-+
++-+--+--+----++
-++-+----+---+--
-+++-+-+---+-+-+
+-+-----++--++--
++--+-+++-++++--
+++++-++-+------
+--+-+-+++-++--+

Generation = 952, Population = 96.
-+-+--+------+-+
++-++++---+-----
+---+-++++-+----
--+++-+----+---+
-+--++-+-++++-+-
+--+----++---++-
-+++++-+----+++-
+------++-------
+++-++--+---++-+
-+---++-+--++---
--++-++++++--+--
+--+--+--++-+++-
+--+---++-++--++
------+-+--+---+

*** Life<FredkinCell> 11x6 ***

Generation = 0, Population = 8.
-0---0
--0-0-
0----0
---0-0
------
------
------
------
------
------
------

Generation = 54, Population = 35.
+-+-+-
+8+-+-
+++--+
--8+--
------
--+5--
789--+
454635
--3-5+
-5+3+-
-+-9+-

Generation = 108, Population = 27.
++++-+
--+-+-
--++-+
-+----
++--+-
----+-
+-+--+
-+-+--
---+--
+-+---
++--++

Generation = 162, Population = 35.
+++++-
++-++-
-+-+--
++++++
+--++-
++-+--
-+-+++
------
-+-+++
+-----
--+-++

Generation = 216, Population = 25.
-+-+--
--+---
++++++
-+-+--
-+--+-
+---+-
-+-+-+
------
-+-+-+
+---+-
-+--+-

Generation = 270, Population = 35.
--++-+
--+++-
+-++++
++--++
+--+--
+++-++
---+--
-+--+-
+-----
++-+++
+++--+

Generation = 324, Population = 30.
-+++++
+-+---
+-+---
---+--
+++-+-
--+-+-
--+-+-
-+-+-+
-+-+--
--+---
++++++

Generation = 378, Population = 28.
+--++-
-+++++
--+---
-+--+-
+-++--
-+-+++
+-+--+
------
+-+--+
----+-
++--+-

Generation = 432, Population = 26.
---+--
+-+---
++--++
-+-+-+
+-++-+
+-+-+-
-----+
------
-----+
+-+-+-
+-++-+

Generation = 486, Population = 30.
+-+++-
-+--++
+++--+
+----+
-+-++-
+-+-++
--+--+
--++--
++----
-++---
+--+--

Generation = 540, Population = 26.
+-+-+-
+-+-+-
---++-
-+---+
--+-+-
--+-+-
+++-+-
-+----
---+-+
----+-
-++++-

Generation = 594, Population = 31.
--++++
-++---
-++-++
--++--
+---+-
+++-+-
++---+
------
++---+
+-+-+-
-+++-+

Generation = 648, Population = 20.
---+-+
----+-
-++++-
-+----
+----+
--+-+-
-+---+
------
-+---+
--+-+-
+----+

Generation = 702, Population = 36.
+++-+-
--+-++
+++--+
+-++-+
+-++++
---+-+
--+++-
++--++
---+-+
+--+--
--+-++

Generation = 756, Population = 22.
----++
+-+---
++-+--
-----+
---+++
------
---+++
---+--
-+-+-+
+---+-
-+--+-

Generation = 810, Population = 31.
-++---
+-++--
++++-+
++--++
++-++-
--++--
--++++
------
--++++
--+---
+--+--

Generation = 864, Population = 19.
-+----
+-----
--++--
---+--
-++++-
----+-
---+-+
------
---+-+
----+-
-++++-

Generation = 918, Population = 29.
-+---+
--++++
------
-++++-
-+++-+
++-+--
+-++--
+----+
----++
-++--+
+--+--

Generation = 972, Population = 27.
-++---
+-+---
+-++++
---+-+
--+++-
+---+-
--+--+
-+---+
---+-+
----+-
-++++-

Generation = 1026, Population = 33.
+-+--+
-+--++
+++++-
+----+
-+---+
+++-++
++---+
------
++---+
+-+-+-
-+++-+

Generation = 1080, Population = 22.
-----+
+-+-+-
+-++-+
-+---+
+----+
--+-+-
-+---+
------
-+---+
--+-+-
+----+

Generation = 1134, Population = 38.
++----
-+-+--
-+++-+
++++++
+-++++
-+-+++
+-+-+-
+-++-+
++++--
--+--+
+--+--

Generation = 1188, Population = 30.
++-+++
------
++-+++
-+-+--
-++-+-
+-+-+-
++-++-
-----+
---+-+
----+-
-++++-

Generation = 1242, Population = 34.
-+-+++
+----+
+++---
+-++-+
+-+++-
+-+-++
++---+
------
++---+
+-+-+-
-+++-+

Generation = 1296, Population = 20.
-+-+-+
+---+-
-+--+-
-----+
+----+
--+-+-
-+---+
------
-+---+
--+-+-
+----+

Generation = 1350, Population = 33.
-+--+-
++-+++
--+-++
-+--+-
+-++++
+++-+-
++++--
-++++-
+----+
---+-+
------

Generation = 1404, Population = 18.
+--+--
--+---
--++++
-+-+-+
-+---+
--+-+-
+----+
---+-+
------
------
------

Generation = 1458, Population = 20.
++---+
+-++++
++++--
-++++-
+----+
---+-+
------
------
------
------
------

Generation = 1512, Population = 8.
-+---+
--+-+-
+----+
---+-+
------
------
------
------
------
------
------

Generation = 1566, Population = 35.
+-+-+-
+++-+-
+++--+
--++--
------
--++--
+++--+
++++++
--+-++
-++++-
-+-++-

Generation = 1620, Population = 27.
++++-+
--+-+-
--++-+
-+----
++--+-
----+-
+-+--+
-+-+--
---+--
+-+---
++--++

Generation = 1674, Population = 35.
+++++-
++-++-
-+-+--
++++++
+--++-
++-+--
-+-+++
------
-+-+++
+-----
--+-++

Generation = 1728, Population = 25.
-+-+--
--+---
++++++
-+-+--
-+--+-
+---+-
-+-+-+
------
-+-+-+
+---+-
-+--+-

Generation = 1782, Population = 35.
--++-+
--+++-
+-++++
++--++
+--+--
+++-++
---+--
-+--+-
+-----
++-+++
+++--+

Generation = 1836, Population = 30.
-+++++
+-+---
+-+---
---+--
+++-+-
--+-+-
--+-+-
-+-+-+
-+-+--
--+---
++++++

*** Life<FredkinCell> 20x8 ***

Generation = 0, Population = 10.
----0-0-
----0--0
--0----0
----0--0
---0-0--
--------
--------
--------
--------
--------
--------
--------
--------
--------
--------
--------
--------
--------
--------
--------

Generation = 135, Population = 43.
--++++--
--++--+-
+--++-+-
++--+--+
+--+----
-++++--+
---++---
--------
---++---
--++++-+
-+-+--+-
--+---++
--+-+-++
---+-+--
--------
--------
--------
--------
--------
--------

Generation = 270, Population = 64.
-----+-+
+-++--++
+++-+--+
+-++--++
++--++-+
--+--+++
-+-+-+-+
--------
---+-+--
----+--+
-+++-+--
--+-+++-
+--+--++
--+-+++-
-------+
--------
-------+
--+-+++-
+----+++
--+--+++

Generation = 405, Population = 85.
-+-++---
-+------
-++--+-+
-++-+-++
+++-+++-
---+++-+
--+-++++
-+---+-+
-+-+-+-+
++++-+-+
+++-+-++
+-++---+
++++++++
-++--+--
+--+---+
+---++--
-+++-+-+
-+--+--+
+---++--
+++-+++-

Generation = 540, Population = 58.
-+--+-+-
++++-+-+
++--+--+
-++----+
+-+-++--
--------
----+-+-
----+--+
++-+-+++
--------
+--+-+++
+--+++-+
+--+++--
+--+-+--
-+--+-+-
----+--+
--+----+
----+--+
---+-+--
--------

Generation = 675, Population = 77.
+------+
---+--+-
--+++---
-+--+++-
+---+-+-
-+-+++++
-+-+-+--
+-++--+-
-++-+--+
--++-+-+
-++++---
--------
+++-++--
+++++++-
-+-----+
++--+-++
--+-++++
++-+-+++
---+-++-
+---++++

Generation = 810, Population = 81.
---+++++
-++-+---
+-+--+++
++++-+-+
-++--+-+
--+--+++
-+-+----
+--+++-+
-+--+-+-
--+--+++
--+++++-
--------
-+-+---+
++-+--+-
+-++-++-
++-+--+-
--++-+-+
+--+++-+
+++-++-+
--+--+++

Generation = 945, Population = 73.
-+------
--+-+---
-++-++--
+---++--
-+-++-+-
-+-+---+
++-+----
+--++--+
+-+-+++-
+--+--+-
++----++
-+++-+-+
---+--++
-+-++-+-
+---+-+-
---+++++
+-++--+-
---+-+++
+--+-+++
-+-++--+

Generation = 1080, Population = 73.
--+-+-+-
--+--+++
++--+--+
-+--++++
---+++++
-++-+---
+--+++--
----+--+
+-++++-+
-++-+---
-++----+
-++----+
-+---+--
----+--+
-++-++++
-++-+---
--+++-++
----+--+
++-+-++-
-++-+---

Generation = 1215, Population = 88.
+-+-++-+
+--++-++
--+---++
--+-++++
+-+++---
--++++--
-+--+-+-
---++++-
-++++--+
-+++--++
+++-+--+
+++++++-
+-++---+
-+++--++
+--++-++
++-+----
++---+++
-+-++--+
+---+-++
-+-+-+--

Generation = 1350, Population = 79.
+--+-++-
++-+--+-
+++++--+
+-+++-+-
++-+--+-
-+---++-
+-+++--+
+--+-+--
---++-++
+-+++-+-
-+++++++
--------
+--+--++
+--+-+--
++++-++-
+--+-+--
+--++---
-++-+---
--+++-+-
-+---++-

Generation = 1485, Population = 84.
+++--+-+
--+----+
+-++-+++
-+--+++-
-+----++
++++--+-
-+----++
----+-++
--++---+
++-++--+
-+++--+-
+++---+-
+++-----
+++----+
---+++-+
+++++++-
+--+-+++
+-++-+--
-+-++--+
+++-++-+

Generation = 1620, Population = 77.
+---+---
--------
-++--+--
++++-+-+
--++-+-+
-++----+
-++++-++
-+---++-
+--+-++-
++-+--+-
-++-----
--------
+++--+++
++++-+-+
-+-++-++
++++-+-+
---+-+-+
++++-+-+
-++++-+-
-++----+

*** Life<FredkinCell> 8x9 ***

Generation = 0, Population = 10.
0------0-
--0----0-
----0---0
---0--0--
--0----0-
---------
---------
---------

Generation = 183, Population = 35.
-++----+-
-+----++-
-+--++-++
++++++---
++++--+--
++--+---+
--++-+--+
+-+-+--++

Generation = 366, Population = 33.
-++----+-
+++++-+-+
++---+-++
++-+-+-+-
-+-+++-++
+--+-----
---+++---
----+---+

Generation = 549, Population = 45.
--++-++++
++-++-++-
-+++--+--
+-++-++-+
---++-+--
++-+++-++
+--++++--
+++++-+++

*** Life<FredkinCell> 4x13 ***

Generation = 0, Population = 6.
--0--------0-
--0-------0--
-----0-0-----
-------------

Generation = 87, Population = 22.
-+-+++----+--
+0--+000+-+-+
+----+--+----
+-+-+----0-0-

Generation = 174, Population = 19.
+++--+--+++-+
-------------
+-+-+++--++++
----+---+----

Generation = 261, Population = 22.
-+--+++-++-++
---0+--0--+--
+++++---+----
--+0-----0-0-

Generation = 348, Population = 27.
+-+++-+-+++-+
+-+-+---+-+-+
+---+-+--+++-
+-+-+---+-+-+

Generation = 435, Population = 28.
+-+---+-+++-+
+---+00--0-0+
-+++---++++++
-0+0----+---+

Generation = 522, Population = 19.
-+++-++-+--+-
--+-+---+-+--
++-++---++-++
-------------

Generation = 609, Population = 27.
++-++--+-+-+-
-0--+0---0+0-
-+--++++--+-+
--+-+--0+-+0+

Generation = 696, Population = 17.
++++-++--+-+-
-------------
----+--++-+-+
+-+-------+-+

Generation = 783, Population = 33.
--++++++--+--
--+-+0-0-0+-+
++-++-+++++-+
+0-0+00---+0+

Generation = 870, Population = 19.
+-+--+++--+-+
+-----------+
+++-+++-+-+--
+-----------+

Generation = 957, Population = 29.
-++++---+---+
---0+0--+0+-+
+++--++++----
--+0+0--+0+0+

Generation = 1044, Population = 14.
+-+++-+---+--
+---+---+---+
---+-+-+-+---
-------------

Generation = 1131, Population = 26.
+---++++--++-
---0-0-0+---+
--+--++--++-+
+0+0+0----+-+

Generation = 1218, Population = 11.
+++---------+
-------------
-+++--+--+---
--+-------+--

Generation = 1305, Population = 27.
++-++---+-+--
+--0+-0---+0-
--+----+++-+-
+0+0+000--+0-

Generation = 1392, Population = 22.
+++-+++++-+++
----+---+----
++-+-++-+---+
----+---+----

Generation = 1479, Population = 27.
-+---++---+--
+0+0+-0-+0--+
-+--+++-++-++
--+-+--0-0+0-

*** Life<FredkinCell> 15x4 ***

Generation = 0, Population = 6.
-0-0
-0-0
0--0
----
----
----
----
----
----
----
----
----
----
----
----

Generation = 90, Population = 21.
--+-
-+-+
-+++
-+-+
-+--
---+
+-+-
----
+-9-
---+
--8-
-7--
7+6+
----
----

Generation = 180, Population = 12.
+-+-
---+
++-+
----
-+--
-+--
++++
----
----
----
----
----
----
----
----

Generation = 270, Population = 31.
++++
-+--
++-+
-+-+
+++-
----
+++-
-+-+
++-+
-+--
----
-+--
++-+
-+-+
+++-

Generation = 360, Population = 14.
-+-+
-+-+
+--+
----
-++-
---+
---+
----
---+
---+
-++-
----
----
----
----

*** Life<FredkinCell> 17x14 ***

Generation = 0, Population = 20.
-------0-0----
-0----------0-
-------0-----0
-------0---0--
------0------0
-----0---0----
---0-------0--
--0--------0--
---0----0-----
-----0------0-
--------------
--------------
--------------
--------------
--------------
--------------
--------------

Generation = 163, Population = 124.
+++-+--++-++--
+-+++-++--+--+
+-+---+-+-+-++
-+++--+-++-+-+
+-++-----+++-+
-+++++--+++-++
--+-++--+++-++
-++----++-+-+-
+--+--++-+-++-
-++++-+++-+---
+--+-++--+-++-
++---+-----+++
-++++++++-++--
-+--+-+----+++
-+++-+--+----+
--+--++-+-----
-++++---+++--+

*** Life<FredkinCell> 11x17 ***

Generation = 0, Population = 14.
--0------0-------
-----0----------0
-------0---0-----
-------0---0-----
-0------------0--
----0-----------0
---0--------0----
-----------------
-----------------
-----------------
-----------------

Generation = 70, Population = 84.
-+-+-----+++-+9-+
--+9--+++--+--+--
---+---+++++---+-
-4+-8-6-967-9----
-+----++++-+++--+
+--3--+9+---+----
+----+++-+7-----+
--+--3------+---9
++++++-+++-+-++8-
----+-+-9-+-8---+
++++++++-------7-

Generation = 140, Population = 73.
-+-----+--+-+---+
-----+--+++-+++-+
-+-++++-+-+---+-+
---+---+---------
+--++++---++-++--
------+----------
+-+++++++++++-++-
-------+---+---9-
++--+++-+--++-+++
+-+------7---+---
--+-+-++--+-++---

Generation = 210, Population = 78.
-+----++++-+-++-+
--+----+--+++--++
+-+--++-+---++-+-
-++-+++--+--+---+
+++--+++--------+
+--8--+++---+----
--+---+++-++++--+
--+-----+-+-+----
-+--+-+-+-+-+-++-
---++---------++-
+++-++--+-+----+-

Generation = 280, Population = 75.
---++-++++----+++
+-+-+++-+-+-+-+--
-++----+++-+-++--
---+-------+---+-
+++++-+++-+-+--++
------+----------
++-++-+--++--+--+
-----------------
++++---++++-++++-
----+-+---------+
-+++---+++---+++-

Generation = 350, Population = 84.
-+-+-----+++-++-+
--++--+++--+--+--
---+---+++++---+-
-++-+-+-+++-+----
-+----++++-+++--+
+--+--+++---+----
+----+++-++-----+
--+--+------+---+
++++++-+++-+-+++-
----+-+-+-+-+---+
++++++++-------+-

Generation = 420, Population = 73.
-+-----+--+-+---+
-----+--+++-+++-+
-+-++++-+-+---+-+
---+---+---------
+--++++---++-++--
------+----------
+-+++++++++++-++-
-------+---+---+-
++--+++-+--++-+++
+-+------+---+---
--+-+-++--+-++---

Generation = 490, Population = 78.
-+----++++-+-++-+
--+----+--+++--++
+-+--++-+---++-+-
-++-+++--+--+---+
+++--+++--------+
+--+--+++---+----
--+---+++-++++--+
--+-----+-+-+----
-+--+-+-+-+-+-++-
---++---------++-
+++-++--+-+----+-

Generation = 560, Population = 75.
---++-++++----+++
+-+-+++-+-+-+-+--
-++----+++-+-++--
---+-------+---+-
+++++-+++-+-+--++
------+----------
++-++-+--++--+--+
-----------------
++++---++++-++++-
----+-+---------+
-+++---+++---+++-

Generation = 630, Population = 84.
-+-+-----+++-++-+
--++--+++--+--+--
---+---+++++---+-
-++-+-+-+++-+----
-+----++++-+++--+
+--+--+++---+----
+----+++-++-----+
--+--+------+---+
++++++-+++-+-+++-
----+-+-+-+-+---+
++++++++-------+-

Generation = 700, Population = 73.
-+-----+--+-+---+
-----+--+++-+++-+
-+-++++-+-+---+-+
---+---+---------
+--++++---++-++--
------+----------
+-+++++++++++-++-
-------+---+---+-
++--+++-+--++-+++
+-+------+---+---
--+-+-++--+-++---

Generation = 770, Population = 78.
-+----++++-+-++-+
--+----+--+++--++
+-+--++-+---++-+-
-++-+++--+--+---+
+++--+++--------+
+--+--+++---+----
--+---+++-++++--+
--+-----+-+-+----
-+--+-+-+-+-+-++-
---++---------++-
+++-++--+-+----+-

Generation = 840, Population = 75.
---++-++++----+++
+-+-+++-+-+-+-+--
-++----+++-+-++--
---+-------+---+-
+++++-+++-+-+--++
------+----------
++-++-+--++--+--+
-----------------
++++---++++-++++-
----+-+---------+
-+++---+++---+++-

Generation = 910, Population = 84.
-+-+-----+++-++-+
--++--+++--+--+--
---+---+++++---+-
-++-+-+-+++-+----
-+----++++-+++--+
+--+--+++---+----
+----+++-++-----+
--+--+------+---+
++++++-+++-+-+++-
----+-+-+-+-+---+
++++++++-------+-

Generation = 980, Population = 73.
-+-----+--+-+---+
-----+--+++-+++-+
-+-++++-+-+---+-+
---+---+---------
+--++++---++-++--
------+----------
+-+++++++++++-++-
-------+---+---+-
++--+++-+--++-+++
+-+------+---+---
--+-+-++--+-++---

Generation = 1050, Population = 78.
-+----++++-+-++-+
--+----+--+++--++
+-+--++-+---++-+-
-++-+++--+--+---+
+++--+++--------+
+--+--+++---+----
--+---+++-++++--+
--+-----+-+-+----
-+--+-+-+-+-+-++-
---++---------++-
+++-++--+-+----+-

Generation = 1120, Population = 75.
---++-++++----+++
+-+-+++-+-+-+-+--
-++----+++-+-++--
---+-------+---+-
+++++-+++-+-+--++
------+----------
++-++-+--++--+--+
-----------------
++++---++++-++++-
----+-+---------+
-+++---+++---+++-

Generation = 1190, Population = 84.
-+-+-----+++-++-+
--++--+++--+--+--
---+---+++++---+-
-++-+-+-+++-+----
-+----++++-+++--+
+--+--+++---+----
+----+++-++-----+
--+--+------+---+
++++++-+++-+-+++-
----+-+-+-+-+---+
++++++++-------+-

